id;ngay_thu_mua;so_luong;chi_phi_mua;tai_sancd_id
1;2021-05-15T14:08:00;55001;5395;1
2;2021-05-15T19:08:15;64488;95935;2
3;2021-05-16T01:38:12;95674;3745;3
4;2021-05-15T08:06:40;91056;98769;4
5;2021-05-15T11:14:33;90721;75913;5
6;2021-05-16T00:36:39;38077;93548;6
7;2021-05-15T04:29:23;53844;80898;7
8;2021-05-15T23:58:14;54237;70708;8
9;2021-05-15T20:47:06;46802;73760;9
10;2021-05-15T16:34:50;93838;8659;10
