id;ngay_chung_tu;so_tien;khoan_phai_thu_id;quy_tien_id;khach_hang_id
1;2021-05-16T16:55:21;20034;1;1;1
2;2021-05-16T10:26:24;81311;2;2;2
3;2021-05-17T01:11:50;46348;3;3;3
4;2021-05-16T15:32:52;78956;4;4;4
5;2021-05-16T23:28:35;75376;5;5;5
6;2021-05-16T17:35:48;60299;6;6;6
7;2021-05-16T20:37:00;26454;7;7;7
8;2021-05-16T23:21:10;57234;8;8;8
9;2021-05-16T12:00:35;61606;9;9;9
10;2021-05-17T00:06:05;4562;10;10;10
