id;ten;loai;gia;khach_san_id
1;redundant Investment;multi-byte microchip;91375;1
2;Incredible transmitting open-source;neutral Licensed reboot;48638;2
3;program;Shirt redundant loyalty;41635;3
4;directional Corporate;GB Forks Incredible;73755;4
5;deposit Won indexing;Bedfordshire Industrial;56639;5
6;Digitized magenta e-markets;National Branding Front-line;70629;6
7;Strategist Steel Account;Data Ergonomic Berkshire;94578;7
8;Account Steel Palladium;withdrawal transmit Fundamental;51957;8
9;Soft web-readiness;deliver virtual;71880;9
10;orchestrate;bus Refined;5762;10
