id;so_tien;ghi_chu;ten;loai_quy_id;ma_ke_toan_id;khach_san_id
1;20341;Planner Plains;Account bifurcated Personal;1;1;1
2;55405;Steel Infrastructure;navigating Unbranded deposit;2;2;2
3;87947;secured Incredible networks;Consultant;3;3;3
4;56518;Steel feed;Towels;4;4;4
5;50923;firewall;analyzing Creative;5;5;5
6;72748;Avon;viral Architect Mozambique;6;6;6
7;8139;olive;JSON structure connecting;7;7;7
8;82914;Grocery Inlet Iceland;Berkshire Operations alarm;8;8;8
9;46651;Shirt;Branding task-force port;9;9;9
10;11075;Tunisian Illinois;reboot Plastic;10;10;10
