{
  "fields": [
    {
      "fieldName": "soLuong",
      "fieldType": "Integer",
      "fieldValidateRules": ["required", "min"],
      "fieldValidateRulesMin": "1"
    },
    {
      "fieldName": "gia",
      "fieldType": "Double",
      "fieldValidateRules": ["required", "min"],
      "fieldValidateRulesMin": "1"
    },
    {
      "fieldName": "ngaySuDung",
      "fieldType": "Instant",
      "fieldValidateRules": ["required"]
    }
  ],
  "relationships": [
    {
      "relationshipName": "dichVu",
      "otherEntityName": "dichVu",
      "relationshipType": "many-to-one",
      "relationshipValidateRules": ["required"],
      "otherEntityField": "ten"
    },
    {
      "relationshipName": "phongDuocDat",
      "otherEntityName": "phongDuocDat",
      "relationshipType": "many-to-one",
      "relationshipValidateRules": ["required"],
      "otherEntityField": "id"
    }
  ],
  "service": "serviceImpl",
  "dto": "mapstruct",
  "jpaMetamodelFiltering": true,
  "readOnly": false,
  "pagination": "pagination",
  "name": "DichVuSuDung",
  "changelogDate": "20210517025119"
}
