{
  "fields": [
    {
      "fieldName": "ten",
      "fieldType": "String",
      "fieldValidateRules": ["required", "maxlength"],
      "fieldValidateRulesMaxlength": "50"
    },
    {
      "fieldName": "donViTuoiTho",
      "fieldType": "String",
      "fieldValidateRules": ["required"]
    },
    {
      "fieldName": "thoiGianSuDung",
      "fieldType": "Double",
      "fieldValidateRules": ["required", "min"],
      "fieldValidateRulesMin": "1"
    },
    {
      "fieldName": "hinhAnh",
      "fieldType": "byte[]",
      "fieldTypeBlobContent": "image"
    }
  ],
  "relationships": [
    {
      "relationshipName": "khachSan",
      "otherEntityName": "khachSan",
      "relationshipType": "many-to-one",
      "relationshipValidateRules": ["required"],
      "otherEntityField": "ten"
    },
    {
      "relationshipName": "loaiTaiSan",
      "otherEntityName": "loaiTaiSan",
      "relationshipType": "many-to-one",
      "relationshipValidateRules": ["required"],
      "otherEntityField": "ten"
    }
  ],
  "service": "serviceImpl",
  "dto": "mapstruct",
  "jpaMetamodelFiltering": true,
  "readOnly": false,
  "pagination": "pagination",
  "name": "TaiSanCD",
  "changelogDate": "20210516040025"
}
